<?xml version="1.0" encoding="utf-8"?>
<!-- Generator: Adobe Illustrator 16.0.0, SVG Export Plug-In . SVG Version: 6.00 Build 0)  -->
<!DOCTYPE svg PUBLIC "-//W3C//DTD SVG 1.1//EN" "http://www.w3.org/Graphics/SVG/1.1/DTD/svg11.dtd">
<svg version="1.1" id="Ebene_1" xmlns="http://www.w3.org/2000/svg" xmlns:xlink="http://www.w3.org/1999/xlink" x="0px" y="0px"
	 width="120px" height="80px" viewBox="0 0 120 80" enable-background="new 0 0 120 80" xml:space="preserve">
<rect x="-0.198" y="-0.087" fill="#94C63E" width="120" height="80"/>
<g>
	<polygon opacity="0.4" fill="#FFFFFF" enable-background="new    " points="15.17,40 19.853,44.684 19.853,60 20,60 35.999,60 
		44.113,60 44.113,20 19.853,20 19.853,35.317 	"/>
</g>
<path opacity="0.4" fill="#FFFFFF" enable-background="new    " d="M99.999,35.172V20H47.718v40h39.531h12.604H100V44.828
	L104.829,40L99.999,35.172z M53.742,35.384h18.204v4.194H53.742V35.384z M78.86,48.174H53.742V43.98H78.86V48.174z M82.929,30.984
	H53.742V26.79h29.187V30.984z"/>
</svg>
