<?xml version="1.0" encoding="utf-8"?>
<!-- Generator: Adobe Illustrator 16.0.0, SVG Export Plug-In . SVG Version: 6.00 Build 0)  -->
<!DOCTYPE svg PUBLIC "-//W3C//DTD SVG 1.1//EN" "http://www.w3.org/Graphics/SVG/1.1/DTD/svg11.dtd">
<svg version="1.1" id="Ebene_1" xmlns="http://www.w3.org/2000/svg" xmlns:xlink="http://www.w3.org/1999/xlink" x="0px" y="0px"
	 width="120px" height="80px" viewBox="0 0 120 80" enable-background="new 0 0 120 80" xml:space="preserve">
<rect fill="#E56D42" width="120" height="80"/>
<path opacity="0.4" fill="#FFFFFF" enable-background="new    " d="M100.146,20h-80l-0.001,40h80V20z M89.375,33.125
	c0,4.142-3.357,7.5-7.5,7.5s-7.5-3.358-7.5-7.5s3.357-7.5,7.5-7.5S89.375,28.983,89.375,33.125z M25.146,55V35.16
	c6.159-2.121,13.992-3.233,22.525-0.566C65,40.009,69.689,54.697,95.146,47.021V55H25.146z"/>
</svg>
